…
i Use `spec()` to retrieve the full column specification for this data.
i Specify the column types or set `show_col_types = FALSE` to quiet this message.
```

```r
gdp
```

```
# A tibble: 106 x 2
   DATE       CLVMNACSCAB1GQES
   <date>                <dbl>
 1 1995-01-01          176474.
 2 1995-04-01          177568.
 3 1995-07-01          178285.
 4 1995-10-01          179640.
 5 1996-01-01          180702.
 6 1996-04-01          182036.
 7 1996-07-01          183596.
 8 1996-10-01          184575.
 9 1997-01-01          186450.
10 1997-04-01          188141.
# ... with 96 more rows
```
…
We have just loaded the content of the csv file into a __dataframe or tibble__ (which is a slightly improved version of a dataframe).

```r
gdp 
```

```
# A tibble: 106 x 2
   DATE       CLVMNACSCAB1GQES
   <date>                <dbl>
 1 1995-01-01          176474.
 2 1995-04-01          177568.
 3 1995-07-01          178285.
 4 1995-10-01          179640.
 5 1996-01-01          180702.
 6 1996-04-01          182036.
 7 1996-07-01          183596.
 8 1996-10-01          184575.
 9 1997-01-01          186450.
10 1997-04-01          188141.
# ... with 96 more rows
```
…
```
Rows: 627 Columns: 7
-- Column specification --------------------------------------------------------
Delimiter: ","
chr (2): name, league
dbl (5): rank, prev_rank, off, def, spi

i Use `spec()` to retrieve the full column specification for this data.
i Specify the column types or set `show_col_types = FALSE` to quiet this message.
```

```
# A tibble: 627 x 7
    rank prev_rank name                league                    off   def   spi
   <dbl>     <dbl> <chr>               <chr>                   <dbl> <dbl> <dbl>
 1     1         1 Manchester City     Barclays Premier League  2.85  0.23  93.1
 2     2         2 Bayern Munich       German Bundesliga        3.38  0.51  92.4
 3     3         3 Liverpool           Barclays Premier League  2.78  0.39  90.1
 4     4         4 Chelsea             Barclays Premier League  2.42  0.27  89.3
 5     5         5 Ajax                Dutch Eredivisie         3.09  0.65  88.4
 6     6         7 Real Madrid         Spanish Primera Divisi~  2.62  0.54  86.2
 7     7         6 Barcelona           Spanish Primera Divisi~  2.62  0.58  85.4
 8     8         8 Manchester United   Barclays Premier League  2.38  0.47  84.9
 9     9        11 Atletico Madrid     Spanish Primera Divisi~  2.2   0.4   84.5
10    10        10 Paris Saint-Germain French Ligue 1           2.54  0.6   84.1
# ... with 617 more rows
```
…
## Introduction

Tibbles are great for **handling datasets**, which we can define for the moment as tabular pieces of information. We will later cover different shapes of datasets, and how we can organize "messy" data into a "tidy" form (hence "tidyverse"), but for the moment we will use tidyverse's default datasets, which are neatly organized.

Let's load some bizarre mammal sleep data with the following commands:


```r
library(tidyverse)
msleep
```

```
# A tibble: 83 x 11
   name         genus vore  order conse~1 sleep~2 sleep~3 sleep~4 awake  brainwt
   <chr>        <chr> <chr> <chr> <chr>     <dbl>   <dbl>   <dbl> <dbl>    <dbl>
 1 Cheetah      Acin~ carni Carn~ lc         12.1    NA    NA      11.9 NA      
 2 Owl monkey   Aotus omni  Prim~ <NA>       17       1.8  NA       7    0.0155 
 3 Mountain be~ Aplo~ herbi Rode~ nt         14.4     2.4  NA       9.6 NA      
 4 Greater sho~ Blar~ omni  Sori~ lc         14.9     2.3   0.133   9.1  0.00029
 5 Cow          Bos   herbi Arti~ domest~     4       0.7   0.667  20    0.423  
 6 Three-toed ~ Brad~ herbi Pilo~ <NA>       14.4     2.2   0.767   9.6 NA      
 7 Northern fu~ Call~ carni Carn~ vu          8.7     1.4   0.383  15.3 NA      
 8 Vesper mouse Calo~ <NA>  Rode~ <NA>        7      NA    NA      17   NA      
 9 Dog          Canis carni Carn~ domest~    10.1     2.9   0.333  13.9  0.07   
10 Roe deer     Capr~ herbi Arti~ lc          3      NA    NA      21    0.0982 
# ... with 73 more rows, 1 more variable: bodywt <dbl>, and abbreviated
#   variable names 1: conservation, 2: sleep_total, 3: sleep_rem,
#   4: sleep_cycle
```
…
(1) Find all mammals that belong to order "Soricomorpha" and sleep less than 9 hours per day

(2) Find all mammals that wither have more than 4 or less than 1 hours of REM sleep per day

## `arrange()`

`arrange()` sorts the rows of a dataframe according to a certain criteria. You may include criteria for different columns, e.g. if we want to sort the mammals by order and then by body weight we would do:


```r
arrange(msleep, order, bodywt)
```

```
# A tibble: 83 x 11
   name   genus vore  order conse~1 sleep~2 sleep~3 sleep~4 awake brainwt bodywt
   <chr>  <chr> <chr> <chr> <chr>     <dbl>   <dbl>   <dbl> <dbl>   <dbl>  <dbl>
 1 Tenrec Tenr~ omni  Afro~ <NA>       15.6     2.3  NA       8.4  0.0026   0.9 
 2 Roe d~ Capr~ herbi Arti~ lc          3      NA    NA      21    0.0982  14.8 
 3 Goat   Capri herbi Arti~ lc          5.3     0.6  NA      18.7  0.115   33.5 
 4 Sheep  Ovis  herbi Arti~ domest~     3.8     0.6  NA      20.2  0.175   55.5 
 5 Pig    Sus   omni  Arti~ domest~     9.1     2.4   0.5    14.9  0.18    86.2 
 6 Cow    Bos   herbi Arti~ domest~     4       0.7   0.667  20    0.423  600   
 7 Giraf~ Gira~ herbi Arti~ cd          1.9     0.4  NA      22.1 NA      900.  
 8 Genet  Gene~ carni Carn~ <NA>        6.3     1.3  NA      17.7  0.0175   2   
 9 Domes~ Felis carni Carn~ domest~    12.5     3.2   0.417  11.5  0.0256   3.3 
10 Arcti~ Vulp~ carni Carn~ <NA>       12.5    NA    NA      11.5  0.0445   3.38
# ... with 73 more rows, and abbreviated variable names 1: conservation,
#   2: sleep_total, 3: sleep_rem, 4: sleep_cycle
```

The keyword `desc` may be used to re-order a column in descending order:


```r
arrange(msleep, desc(order), bodywt)
```

```
# A tibble: 83 x 11
   name   genus vore  order conse~1 sleep~2 sleep~3 sleep~4 awake brainwt bodywt
   <chr>  <chr> <chr> <chr> <chr>     <dbl>   <dbl>   <dbl> <dbl>   <dbl>  <dbl>
 1 "Less~ Cryp~ omni  Sori~ lc          9.1     1.4   0.15   14.9  1.4e-4  0.005
 2 "Grea~ Blar~ omni  Sori~ lc         14.9     2.3   0.133   9.1  2.9e-4  0.019
 3 "Musk~ Sunc~ <NA>  Sori~ <NA>       12.8     2     0.183  11.2  3.3e-4  0.048
 4 "Star~ Cond~ omni  Sori~ lc         10.3     2.2  NA      13.7  1  e-3  0.06 
 5 "East~ Scal~ inse~ Sori~ lc          8.4     2.1   0.167  15.6  1.2e-3  0.075
 6 "Tree~ Tupa~ omni  Scan~ <NA>        8.9     2.6   0.233  15.1  2.5e-3  0.104
 7 "Deer~ Pero~ <NA>  Rode~ <NA>       11.5    NA    NA      12.5 NA       0.021
 8 "Hous~ Mus   herbi Rode~ nt         12.5     1.4   0.183  11.5  4  e-4  0.022
 9 "Nort~ Onyc~ carni Rode~ lc         14.5    NA    NA       9.5 NA       0.028
10 "Vole~ Micr~ herbi Rode~ <NA>       12.8    NA    NA      11.2 NA       0.035
# ... with 73 more rows, and abbreviated variable names 1: conservation,
#   2: sleep_total, 3: sleep_rem, 4: sleep_cycle
```

Note that missing values are always sorted at the end. To sort them to the start, we may use `is.na()`, e.g. in order to find the rows with `NA`s in sleep_rem we may do the following:

```r
arrange(msleep, desc(is.na(sleep_rem)))
```

```
# A tibble: 83 x 11
   name  genus vore  order conse~1 sleep~2 sleep~3 sleep~4 awake brainwt  bodywt
   <chr> <chr> <chr> <chr> <chr>     <dbl>   <dbl>   <dbl> <dbl>   <dbl>   <dbl>
 1 "Che~ Acin~ carni Carn~ lc         12.1      NA      NA  11.9 NA      5   e+1
 2 "Ves~ Calo~ <NA>  Rode~ <NA>        7        NA      NA  17   NA      4.5 e-2
 3 "Roe~ Capr~ herbi Arti~ lc          3        NA      NA  21    0.0982 1.48e+1
 4 "Asi~ Elep~ herbi Prob~ en          3.9      NA      NA  20.1  4.60   2.55e+3
 5 "Wes~ Euta~ herbi Rode~ <NA>       14.9      NA      NA   9.1 NA      7.1 e-2
 6 "Afr~ Loxo~ herbi Prob~ vu          3.3      NA      NA  20.7  5.71   6.65e+3
 7 "Vol~ Micr~ herbi Rode~ <NA>       12.8      NA      NA  11.2 NA      3.5 e-2
 8 "Rou~ Neof~ herbi Rode~ nt         14.6      NA      NA   9.4 NA      2.66e-1
 9 "Slo~ Nyct~ carni Prim~ <NA>       11        NA      NA  13    0.0125 1.4 e+0
10 "Nor~ Onyc~ carni Rode~ lc         14.5      NA      NA   9.5 NA      2.8 e-2
# ... with 73 more rows, and abbreviated variable names 1: conservation,
#   2: sleep_total, 3: sleep_rem, 4: sleep_cycle
```
…
(1) Sort the `msleep` dataset by ascending alphabetical order of "order", and then by descending sleep hours.



## `select()`

Dataframes may have more columns than we are interested in: `select` allow us to "select" only those that we want to work with. For the sake of variety we will switch to the `storm` dataframe. Say that we just want to look into names and years of storms:

```r
select(storms, name, year)
```

```
# A tibble: 11,859 x 2
   name   year
   <chr> <dbl>
 1 Amy    1975
 2 Amy    1975
 3 Amy    1975
 4 Amy    1975
 5 Amy    1975
 6 Amy    1975
 7 Amy    1975
 8 Amy    1975
 9 Amy    1975
10 Amy    1975
# ... with 11,849 more rows
```
We can also select all columns between two certain columns, all columns except for one or certain ones, etc.:

```r
select(storms, name:hour)
```

```
# A tibble: 11,859 x 5
   name   year month   day  hour
   <chr> <dbl> <dbl> <int> <dbl>
 1 Amy    1975     6    27     0
 2 Amy    1975     6    27     6
 3 Amy    1975     6    27    12
 4 Amy    1975     6    27    18
 5 Amy    1975     6    28     0
 6 Amy    1975     6    28     6
 7 Amy    1975     6    28    12
 8 Amy    1975     6    28    18
 9 Amy    1975     6    29     0
10 Amy    1975     6    29     6
# ... with 11,849 more rows
```

```r
select(storms, -(year:category))
```

```
# A tibble: 11,859 x 5
   name   wind pressure tropicalstorm_force_diameter hurricane_force_diameter
   <chr> <int>    <int>                        <int>                    <int>
 1 Amy      25     1013                           NA                       NA
 2 Amy      25     1013                           NA                       NA
 3 Amy      25     1013                           NA                       NA
 4 Amy      25     1013                           NA                       NA
 5 Amy      25     1012                           NA                       NA
 6 Amy      25     1012                           NA                       NA
 7 Amy      25     1011                           NA                       NA
 8 Amy      30     1006                           NA                       NA
 9 Amy      35     1004                           NA                       NA
10 Amy      40     1002                           NA                       NA
# ... with 11,849 more rows
```

`select` may be used with helper functions such as `starts_with`, `ends_with`, or `contains`.

```r
select(storms, starts_with('l'))
```

```
# A tibble: 11,859 x 2
     lat  long
   <dbl> <dbl>
 1  27.5 -79  
 2  28.5 -79  
 3  29.5 -79  
 4  30.5 -79  
 5  31.5 -78.8
 6  32.4 -78.7
 7  33.3 -78  
 8  34   -77  
 9  34.4 -75.8
10  34   -74.8
# ... with 11,849 more rows
```

```r
select(storms, ends_with('e'))
```

```
# A tibble: 11,859 x 2
   name  pressure
   <chr>    <int>
 1 Amy       1013
 2 Amy       1013
 3 Amy       1013
 4 Amy       1013
 5 Amy       1012
 6 Amy       1012
 7 Amy       1011
 8 Amy       1006
 9 Amy       1004
10 Amy       1002
# ... with 11,849 more rows
```

```r
select(storms, contains('diameter'))
```

```
# A tibble: 11,859 x 2
   tropicalstorm_force_diameter hurricane_force_diameter
                          <int>                    <int>
 1                           NA                       NA
 2                           NA                       NA
 3                           NA                       NA
 4                           NA                       NA
 5                           NA                       NA
 6                           NA                       NA
 7                           NA                       NA
 8                           NA                       NA
 9                           NA                       NA
10                           NA                       NA
# ... with 11,849 more rows
```
Finally, they helper `everything()` helps us reorganize the columns:


```r
select(storms, 'status', 'name', everything())
```

```
# A tibble: 11,859 x 13
   status        name   year month   day  hour   lat  long categ~1  wind press~2
   <chr>         <chr> <dbl> <dbl> <int> <dbl> <dbl> <dbl> <ord>   <int>   <int>
 1 tropical dep~ Amy    1975     6    27     0  27.5 -79   -1         25    1013
 2 tropical dep~ Amy    1975     6    27     6  28.5 -79   -1         25    1013
 3 tropical dep~ Amy    1975     6    27    12  29.5 -79   -1         25    1013
 4 tropical dep~ Amy    1975     6    27    18  30.5 -79   -1         25    1013
 5 tropical dep~ Amy    1975     6    28     0  31.5 -78.8 -1         25    1012
 6 tropical dep~ Amy    1975     6    28     6  32.4 -78.7 -1         25    1012
 7 tropical dep~ Amy    1975     6    28    12  33.3 -78   -1         25    1011
 8 tropical dep~ Amy    1975     6    28    18  34   -77   -1         30    1006
 9 tropical sto~ Amy    1975     6    29     0  34.4 -75.8 0          35    1004
10 tropical sto~ Amy    1975     6    29     6  34   -74.8 0          40    1002
# ... with 11,849 more rows, 2 more variables:
#   tropicalstorm_force_diameter <int>, hurricane_force_diameter <int>, and
#   abbreviated variable names 1: category, 2: pressure
```
…
```
The following object is masked from 'package:dplyr':

    select
```

```r
library('tidyverse')
mutate(painters, score = (Composition + Drawing + Colour + Expression) * 100/80) 
```

```
# A tibble: 54 x 6
   Composition Drawing Colour Expression School score
         <int>   <int>  <int>      <int> <fct>  <dbl>
 1          10       8     16          3 A       46.2
 2          15      16      4         14 A       61.2
 3           8      13     16          7 A       55  
 4          12      16      9          8 A       56.2
 5           0      15      8          0 A       28.8
 6          15      16      4         14 A       61.2
 7           8      17      4          8 A       46.2
 8          15      16      7          6 A       55  
 9           4      12     10          4 A       37.5
10          17      18     12         18 A       81.2
# ... with 44 more rows
```

`transmute()` is equivalent to `mutate()` except for the fact that it removes all other columns:

```r
transmute(painters,
          score = (Composition + Drawing + Colour + Expression) * 100/80) 
```

```
# A tibble: 54 x 1
   score
   <dbl>
 1  46.2
 2  61.2
 3  55  
 4  56.2
 5  28.8
 6  61.2
 7  46.2
 8  55  
 9  37.5
10  81.2
# ... with 44 more rows
```
…
Attaching package: 'lubridate'
```

```
The following objects are masked from 'package:base':

    date, intersect, setdiff, union
```

```r
mutate(economics, pop_growth = pop - lag(pop, n=1))
```

```
# A tibble: 574 x 7
   date         pce    pop psavert uempmed unemploy pop_growth
   <date>     <dbl>  <dbl>   <dbl>   <dbl>    <dbl>      <dbl>
 1 1967-07-01  507. 198712    12.6     4.5     2944         NA
 2 1967-08-01  510. 198911    12.6     4.7     2945        199
 3 1967-09-01  516. 199113    11.9     4.6     2958        202
 4 1967-10-01  512. 199311    12.9     4.9     3143        198
 5 1967-11-01  517. 199498    12.8     4.7     3066        187
 6 1967-12-01  525. 199657    11.8     4.8     3018        159
 7 1968-01-01  531. 199808    11.7     5.1     2878        151
 8 1968-02-01  534. 199920    12.3     4.5     3001        112
 9 1968-03-01  544. 200056    11.7     4.1     2877        136
10 1968-04-01  544  200208    12.3     4.6     2709        152
# ... with 564 more rows
```

```r
mutate(economics, year = year(date))
```

```
# A tibble: 574 x 7
   date         pce    pop psavert uempmed unemploy  year
   <date>     <dbl>  <dbl>   <dbl>   <dbl>    <dbl> <dbl>
 1 1967-07-01  507. 198712    12.6     4.5     2944  1967
 2 1967-08-01  510. 198911    12.6     4.7     2945  1967
 3 1967-09-01  516. 199113    11.9     4.6     2958  1967
 4 1967-10-01  512. 199311    12.9     4.9     3143  1967
 5 1967-11-01  517. 199498    12.8     4.7     3066  1967
 6 1967-12-01  525. 199657    11.8     4.8     3018  1967
 7 1968-01-01  531. 199808    11.7     5.1     2878  1968
 8 1968-02-01  534. 199920    12.3     4.5     3001  1968
 9 1968-03-01  544. 200056    11.7     4.1     2877  1968
10 1968-04-01  544  200208    12.3     4.6     2709  1968
# ... with 564 more rows
```
…
You may wonder, why not just use `mean(economics$pop)`? Truth is, in this case using `summarise` is an overkill. But `summarise` becomes powerful when used in conjunction with `groupby()`, which allows to perform operations on grouped rows of the dataframe. For instance, we may want to calculate the average yearly population on the `economics` dataset:


```r
economics_yearly <- mutate(economics, year = year(date))
by_year <- group_by(economics_yearly, year)
summarise(by_year, avg_pop=mean(pop))
```

```
# A tibble: 49 x 2
    year avg_pop
   <dbl>   <dbl>
 1  1967 199200.
 2  1968 200664.
 3  1969 202649.
 4  1970 204982.
 5  1971 207589.
 6  1972 209838.
 7  1973 211857.
 8  1974 213815.
 9  1975 215891.
10  1976 217999.
# ... with 39 more rows
```
…
```r
library(modelr)
library(tidyverse)
heights %>%
  filter(height > 60,
         weight < 200
  ) %>% 
  arrange(desc(income)) %>% 
  mutate(bmi = weight * 0.45 / (height * 0.025)**2 )
```

```
# A tibble: 4,091 x 9
   income height weight   age marital sex    education  afqt   bmi
    <int>  <dbl>  <int> <int> <fct>   <fct>      <int> <dbl> <dbl>
 1 343830     62    170    51 married female        16  88.4  31.8
 2 343830     70    195    49 married male          18  64.2  28.7
 3 343830     67    165    55 married male          16  81.4  26.5
 4 343830     69    185    53 married male          16  83.7  28.0
 5 343830     74    190    53 married male          16  78.0  25.0
 6 343830     72    190    54 married male          20  90.1  26.4
 7 343830     74    187    51 married male          16  86.1  24.6
 8 343830     68    170    53 married male          12  69.9  26.5
 9 343830     70    150    52 married male          20  92.0  22.0
10 343830     69    155    49 single  male          16  86.9  23.4
# ... with 4,081 more rows
```
…
```r
bob_ross %>% 
  separate(episode, into=c('season_code', 'episode_code'), sep='E')
```

```
# A tibble: 403 x 72
   seaso~1 episo~2 season episo~3 title apple~4 auror~5  barn beach  boat bridge
   <chr>   <chr>    <dbl>   <dbl> <chr>   <int>   <int> <int> <int> <int>  <int>
 1 S01     01           1       1 A WA~       0       0     0     0     0      0
 2 S01     02           1       2 MT. ~       0       0     0     0     0      0
 3 S01     03           1       3 EBON~       0       0     0     0     0      0
 4 S01     04           1       4 WINT~       0       0     0     0     0      0
 5 S01     05           1       5 QUIE~       0       0     0     0     0      0
 6 S01     06           1       6 WINT~       0       0     0     0     0      0
 7 S01     07           1       7 AUTU~       0       0     0     0     0      0
 8 S01     08           1       8 PEAC~       0       0     0     0     0      0
 9 S01     09           1       9 SEAS~       0       0     0     1     0      0
10 S01     10           1      10 MOUN~       0       0     0     0     0      0
# ... with 393 more rows, 61 more variables: building <int>, bushes <int>,
#   cabin <int>, cactus <int>, circle_frame <int>, cirrus <int>, cliff <int>,
#   clouds <int>, conifer <int>, cumulus <int>, deciduous <int>,
#   diane_andre <int>, dock <int>, double_oval_frame <int>, farm <int>,
#   fence <int>, fire <int>, florida_frame <int>, flowers <int>, fog <int>,
#   framed <int>, grass <int>, guest <int>, half_circle_frame <int>,
#   half_oval_frame <int>, hills <int>, lake <int>, lakes <int>, ...
```
…
